"aa3"	"aa1"	"aaMass"	"formula"		"name"
"ALA"	"ALA"	"A"	71.08	"C3 H5 N O1"	"Alanine"
"ARG"	"ARG"	"R"	157.204	"C6 H13 N4 O1"	"Arginine"
"ASN"	"ASN"	"N"	114.108	"C4 H6 N2 O2"	"Asparagine"
"ASP"	"ASP"	"D"	114.082	"C4 H4 N O3"	"Aspartic Acid"
"CYS"	"CYS"	"C"	103.15	"C3 H5 N O1 S"	"Cystein"
"GLN"	"GLN"	"Q"	117.132	"C4 H9 N2 O2"	"Glutamine"
"GLU"	"GLU"	"E"	128.108	"C5 H6 N O3"	"Glutamic Acid"
"GLY"	"GLY"	"G"	57.054	"C2 H3 N O1"	"Glycine"
"HIS"	"HIS"	"H"	137.146	"C6 H7 N3 O1"	"Histidine"
"ILE"	"ILE"	"I"	113.158	"C6 H11 N O1"	"Isoleucine"
"LEU"	"LEU"	"L"	113.158	"C6 H11 N O1"	"Leucine"
"LYS"	"LYS"	"K"	129.184	"C6 H13 N2 O1"	"Lysine"
"MET"	"MET"	"M"	131.202	"C5 H9 N O1 S"	"Methionine"
"PHE"	"PHE"	"F"	147.172	"C9 H9 N O1"	"Phenylalanine"
"PRO"	"PRO"	"P"	97.116	"C5 H7 N O1"	"Proline"
"SER"	"SER"	"S"	87.08	"C3 H5 N O2"	"Serine"
"THR"	"THR"	"T"	101.106	"C4 H7 N O2"	"Threonine"
"TRP"	"TRP"	"W"	186.21	"C11 H10 N2 O1"	"Tryptophan"
"TYR"	"TYR"	"Y"	163.172	"C9 H9 N O2"	"Tyrosine"
"VAL"	"VAL"	"V"	99.132	"C5 H9 N O1"	"Valine"
"ABA"	"ABA"	"X"	85.106	"C4 H7 N1 O1"	"alpha-aminobutyric acid"
"ASH"	"ASH"	"D"	115.09	"C4 H5 N O3"	"Aspartic acid Neutral"
"CME"	"CME"	"C"	179.272	"C5 H9 N O2 S2"	"s,s-(2-hydroxyethyl)thiocysteine"
"CMT"	"CMT"	"C"	117.176	"C4 H7 N O1 S"	"o-methylcysteine"
"CSD"	"CSD"	"C"	135.15	"C3 H5 N O3 S"	"s-cysteinesulfinic acid"
"CSO"	"CSO"	"C"	119.15	"C3 H5 N O2 S"	"s-hydroxycysteine"
"CSX"	"CSX"	"C"	119.15	"C3 H5 N O2 S"	"s-oxy cysteine"
"CYM"	"CYM"	"C"	102.142	"C3 H4 N O1 S"	"Cystein Negative"
"CYX"	"CYX"	"C"	102.142	"C3 H4 N O1 S"	"Cystein SSbond"
"GLH"	"GLH"	"E"	129.116	"C5 H7 N O3"	"Glutatmic acid Neutral"
"HID"	"HID"	"H"	137.146	"C6 H7 N3 O1"	"Histidine"
"HIE"	"HIE"	"H"	137.146	"C6 H7 N3 O1"	"Histidine"
"HIP"	"HIP"	"H"	138.154	"C6 H8 N3 O1"	"Histidine Positive"
"HSD"	"HSD"	"H"	137.146	"C6 H7 N3 O1"	"Histidine"
"HSE"	"HSE"	"H"	137.146	"C6 H7 N3 O1"	"Histidine"
"HSP"	"HSP"	"H"	138.154	"C6 H8 N3 O1"	"Histidine Positive"
"IAS"	"IAS"	"D"	115.09	"C4 H5 N O3"	"beta-aspartyl"
"LYN"	"LYN"	"K"	128.176	"C6 H12 N2 O1"	"Lysine Neutral"
"MHO"	"MHO"	"M"	147.202	"C5 H9 N O2 S"	"s-oxymethionine"
"MLY"	"MLY"	"K"	156.228	"C8 H16 N2 O1"	"n-dimethyl-lysine"
"MSE"	"MSE"	"M"	178.102	"C5 H9 N O1 SE"	"selenomethionine"
"PFF"	"PFF"	"F"	165.164	"C9 H8 F N O1"	"4-fluoro-l-phenylalanine"
"PTR"	"PTR"	"Y"	243.15	"C9 H10 N O5 P"	"o-phosphotyrosine"
"SEP"	"SEP"	"S"	167.058	"C3 H6 N O5 P"	"phosphoserine"
"TPO"	"TPO"	"T"	181.084	"C4 H8 N O5 P"	"phosphothreonine"
